{
    "animations":
	[
        { "ID": 0, "shader": 6, "borderShader": 0, "files": ["../Resources/Animations/boblamp/boblampclean.md5mesh"] },
        { "ID": 1, "shader": 6, "borderShader": 0,
        "files": [
        "../Resources/Animations/Character/Model.fbx",
        "../Resources/Animations/Character/Walking.fbx",
        "../Resources/Animations/Character/Idle.fbx"
        ]
        }
	],
	
    "models":
    [
        { "ID": 0, "files": ["../Resources/Models/Woman1.nfg"], "2Dtex": [0], "shader": 0, "borderShader": 1 },
        { "ID": 1, "files": ["../Resources/Models/Woman2.nfg"], "2Dtex": [1], "shader": 0, "borderShader": 1 },
        { "ID": 2, "files": ["../Resources/Models/SkyBox.nfg"], "cubeTex": [0], "shader": 2},
        { "ID": 3, "files": ["../Resources/Models/Bila.nfg"], "cubeTex": [0], "shader": 3, "borderShader": 1 },
        { "ID": 4, "files": ["../Resources/Models/fire.nfg"], "2Dtex": [6,7,8], "shader": 4, "borderShader": 1 }
    ],
	
    "2DTextures":
    [
        { "ID": 0, "file": "../Resources/Textures/Woman1.tga", "tiling": "CLAMP_TO_EDGE" },
        { "ID": 1, "file": "../Resources/Textures/Woman2.tga", "tiling": "CLAMP_TO_EDGE" },

        { "ID": 2, "file": "../Resources/Textures/Terrain_blend_map.tga", "tiling": "REPEAT" },
        { "ID": 3, "file": "../Resources/Textures/Rock.tga", "tiling": "REPEAT" },
        { "ID": 4, "file": "../Resources/Textures/Dirt.tga", "tiling": "REPEAT" },
        { "ID": 5, "file": "../Resources/Textures/Grass.tga", "tiling": "REPEAT" },

        { "ID": 6, "file": "../Resources/Textures/DisplacementMap.tga", "tiling": "REPEAT" },
        { "ID": 7, "file": "../Resources/Textures/fire3.tga", "tiling": "CLAMP_TO_EDGE" },
        { "ID": 8, "file": "../Resources/Textures/fire_mask.tga", "tiling": "CLAMP_TO_EDGE" },
        { "ID": 9, "file": "../Resources/Textures/WaterNormal.tga", "tiling": "REPEAT" }
    ],
	
    "cubeTextures":
    [
        { "ID": 0, "file": "../Resources/Textures/envMap.tga", "tiling": "CLAMP_TO_EDGE" }
    ],

    "pathToShaders": "../Resources/Shaders/",

    "shaders":
    [
        { "ID": 0, "VS": "ModelShader.vs", "FS": "ModelShader.fs" },
        { "ID": 1, "VS": "ModelShader.vs", "FS": "TerrainShader.fs" },
        { "ID": 2, "VS": "ModelShader.vs", "FS": "SkyBoxShader.fs" },
        { "ID": 3, "VS": "ModelShader.vs", "FS": "ReflectionShader.fs" },
        { "ID": 4, "VS": "ModelShader.vs", "FS": "UVdisplacementShader.fs" },
        { "ID": 5, "VS": "ModelShader.vs", "FS": "WaterShader.fs" },
        { "ID": 6, "VS": "AnimationShader.vs", "FS": "ModelShader.fs" }
    ],

    "borderShader":
    [
        { "ID": 0, "VS": "AnimationShader.vs", "FS": "BorderShader.fs" },
        { "ID": 1, "VS": "ModelShader.vs", "FS": "BorderShader.fs" }
    ],
	
    "heightmaps":
    [
        { "ID": 0, "file": "../Resources/Textures/heightmap.tga", "shader": 1, "borderShader": 1, "2Dtex": [2,3,4,5] }
    ]
}
